colab6/colab6.sim/sim_1/behav/xsim/simulate.log
Vivado Simulator 2017.4
Time resolution is 1 ps
$finish called at time : 640 ns : File "C:/Users/sco/Desktop/colab6/colab6.srcs/sim_1/new/adderTb.v" Line 31
 ro1 = 110(-2), ro2 =110(-2),ro3 =zz0( Z)
000-011: ro1 = 101(-3), ro2 =101(-3),ro3 =zz0( Z)
000-100: ro1 = 000( 0), ro2 =100(-4),ro3 =zz1( Z)
000-101: ro1 = 011( 3), ro2 =011( 3),ro3 =zz0( Z)
000-110: ro1 = 010( 2), ro2 =010( 2),ro3 =zz0( Z)
000-111: ro1 = 001( 1), ro2 =001( 1),ro3 =zz0( Z)
001-000: ro1 = 101(-3), ro2 =001( 1),ro3 =zz0( Z)
001-001: ro1 = 000( 0), ro2 =000( 0),ro3 =zz0( Z)
001-010: ro1 = 111(-1), ro2 =111(-1),ro3 =zz0( Z)
001-011: ro1 = 110(-2), ro2 =110(-2),ro3 =zz0( Z)
001-100: ro1 = 001( 1), ro2 =101(-3),ro3 =zz1( Z)
001-101: ro1 = 100(-4), ro2 =100(-4),ro3 =zz1( Z)
001-110: ro1 = 011( 3), ro2 =011( 3),ro3 =zz0( Z)
001-111: ro1 = 010( 2), ro2 =010( 2),ro3 =zz0( Z)
010-000: ro1 = 110(-2), ro2 =010( 2),ro3 =zz0( Z)
010-001: ro1 = 001( 1), ro2 =001( 1),ro3 =zz0( Z)
010-010: ro1 = 000( 0), ro2 =000( 0),ro3 =zz0( Z)
010-011: ro1 = 111(-1), ro2 =111(-1),ro3 =zz0( Z)
010-100: ro1 = 010( 2), ro2 =110(-2),ro3 =zz1( Z)
010-101: ro1 = 101(-3), ro2 =101(-3),ro3 =zz1( Z)
010-110: ro1 = 100(-4), ro2 =100(-4),ro3 =zz1( Z)
010-111: ro1 = 011( 3), ro2 =011( 3),ro3 =zz0( Z)
011-000: ro1 = 111(-1), ro2 =011( 3),ro3 =zz0( Z)
011-001: ro1 = 010( 2), ro2 =010( 2),ro3 =zz0( Z)
011-010: ro1 = 001( 1), ro2 =001( 1),ro3 =zz0( Z)
011-011: ro1 = 000( 0), ro2 =000( 0),ro3 =zz0( Z)
011-100: ro1 = 011( 3), ro2 =111(-1),ro3 =zz1( Z)
011-101: ro1 = 110(-2), ro2 =110(-2),ro3 =zz1( Z)
011-110: ro1 = 101(-3), ro2 =101(-3),ro3 =zz1( Z)
011-111: ro1 = 100(-4), ro2 =100(-4),ro3 =zz1( Z)
100-000: ro1 = 000( 0), ro2 =100(-4),ro3 =zz0( Z)
100-001: ro1 = 011( 3), ro2 =011( 3),ro3 =zz1( Z)
100-010: ro1 = 010( 2), ro2 =010( 2),ro3 =zz1( Z)
100-011: ro1 = 001( 1), ro2 =001( 1),ro3 =zz1( Z)
100-100: ro1 = 100(-4), ro2 =000( 0),ro3 =zz0( Z)
100-101: ro1 = 111(-1), ro2 =111(-1),ro3 =zz0( Z)
100-110: ro1 = 110(-2), ro2 =110(-2),ro3 =zz0( Z)
100-111: ro1 = 101(-3), ro2 =101(-3),ro3 =zz0( Z)
101-000: ro1 = 001( 1), ro2 =101(-3),ro3 =zz0( Z)
101-001: ro1 = 100(-4), ro2 =100(-4),ro3 =zz0( Z)
101-010: ro1 = 011( 3), ro2 =011( 3),ro3 =zz1( Z)
101-011: ro1 = 010( 2), ro2 =010( 2),ro3 =zz1( Z)
101-100: ro1 = 101(-3), ro2 =001( 1),ro3 =zz0( Z)
101-101: ro1 = 000( 0), ro2 =000( 0),ro3 =zz0( Z)
101-110: ro1 = 111(-1), ro2 =111(-1),ro3 =zz0( Z)
101-111: ro1 = 110(-2), ro2 =110(-2),ro3 =zz0( Z)
110-000: ro1 = 010( 2), ro2 =110(-2),ro3 =zz0( Z)
110-001: ro1 = 101(-3), ro2 =101(-3),ro3 =zz0( Z)
110-010: ro1 = 100(-4), ro2 =100(-4),ro3 =zz0( Z)
110-011: ro1 = 011( 3), ro2 =011( 3),ro3 =zz1( Z)
110-100: ro1 = 110(-2), ro2 =010( 2),ro3 =zz0( Z)
110-101: ro1 = 001( 1), ro2 =001( 1),ro3 =zz0( Z)
110-110: ro1 = 000( 0), ro2 =000( 0),ro3 =zz0( Z)
110-111: ro1 = 111(-1), ro2 =111(-1),ro3 =zz0( Z)
111-000: ro1 = 011( 3), ro2 =111(-1),ro3 =zz0( Z)
111-001: ro1 = 110(-2), ro2 =110(-2),ro3 =zz0( Z)
111-010: ro1 = 101(-3), ro2 =101(-3),ro3 =zz0( Z)
111-011: ro1 = 100(-4), ro2 =100(-4),ro3 =zz0( Z)
111-100: ro1 = 111(-1), ro2 =011( 3),ro3 =zz0( Z)
111-101: ro1 = 010( 2), ro2 =010( 2),ro3 =zz0( Z)
111-110: ro1 = 001( 1), ro2 =001( 1),ro3 =zz0( Z)
111-111: ro1 = 000( 0), ro2 =000( 0),ro3 =zz0( Z)
$finish called at time : 640 ns : File "C:/Users/sco/Desktop/colab6/colab6.srcs/sim_1/new/subTb.v" Line 36
